Place,Name,BirthYear,Country,BodyweightKg,Squat1Kg,Squat2Kg,Squat3Kg,Best3SquatKg,Bench1Kg,Bench2Kg,Bench3Kg,Best3BenchKg,Deadlift1Kg,Deadlift2Kg,Deadlift3Kg,Best3DeadliftKg,TotalKg,WeightClassKg,Division,Event,Sex,Equipment
1,Leslie Evangelista,1981,Philippines,47,115,120,,120,65,67.5,-70,67.5,145,152.5,157.5,157.5,345,47,Open,SBD,F,Raw
2,Natalya Tskhay,1975,Kazakhstan,46.45,-90,90,-100,90,52.5,57.5,-60,57.5,100,-110,-110,100,247.5,47,Open,SBD,F,Raw
1,Swain Anupama,1990,India,51.3,117.5,127.5,132.5,132.5,57.5,65,-67.5,65,117.5,127.5,-132.5,127.5,325,52,Open,SBD,F,Raw
2,Layteng Lee,1996,Singapore,50.9,117.5,122.5,-125,122.5,57.5,62.5,-65,62.5,122.5,127.5,132.5,132.5,317.5,52,Open,SBD,F,Raw
3,Anita Koykka,1960,Philippines,51.3,110,-120,-120,110,65,67.5,-72.5,67.5,130,140,-142.5,140,317.5,52,Open,SBD,F,Raw
4,Bhanu Majiziya,1990,India,52,100,110,-115,110,50,55,60,60,135,-150,-150,135,305,52,Open,SBD,F,Raw
5,Raikwar Sarita,1993,India,51.3,100,110,-115,110,52.5,-60,60,60,120,130,-135,130,300,52,Open,SBD,F,Raw
1,Hartati Sri,1984,Indonesia,54,120,-130,130,130,80,90,102.5,102.5,110,125,135,135,367.5,57,Open,SBD,F,Raw
2,Bag Bijlee,1995,India,55.3,95,107.5,-115,107.5,60,67.5,-70,67.5,110,125,-132.5,125,300,57,Open,SBD,F,Raw
3,Upadhyaya Rajani,1979,India,53.65,95,110,115,115,50,57.5,-60,57.5,95,107.5,112.5,112.5,285,57,Open,SBD,F,Raw
4,Helma Noorollahi,1990,Iran,55,50,60,-80,60,45,-47.5,47.5,47.5,70,97.5,-110,97.5,205,57,Open,SBD,F,Raw
1,Daniella Means,1990,Hong Kong,61.7,130,135,137.5,137.5,80,82.5,-85,82.5,165,172.5,175,175,395,63,Open,SBD,F,Raw
2,Yuliya Tomazova,1993,Kazakhstan,63,120,130,137.5,137.5,75,80,85,85,150,165,172.5,172.5,395,63,Open,SBD,F,Raw
3,Carmille Wong,1991,Malaysia,60.3,127.5,135,137.5,137.5,57.5,62.5,-65,62.5,120,-127.5,-127.5,120,320,63,Open,SBD,F,Raw
4,Memoli Devi Lishram,1987,India,59.7,67.5,-75,75,75,32.5,40,-42.5,40,87.5,100,-107.5,100,215,63,Open,SBD,F,Raw
1,Svetlana Piven,1990,Kazakhstan,67.7,130,140,147.5,147.5,75,80,-85,80,145,162.5,170,170,397.5,72,Open,SBD,F,Raw
2,Bithika Mondal,1992,India,68,115,130,137.5,137.5,62.5,70,-75,70,120,135,145,145,352.5,72,Open,SBD,F,Raw
3,Nitya Nitya,1989,India,71.8,125,-135,-135,125,65,70,-72.5,70,140,152.5,-160,152.5,347.5,72,Open,SBD,F,Raw
DQ,Devi Nadram Babita,1986,India,70.95,-127.5,-127.5,-127.5,,60,72.5,-77.5,72.5,130,137.5,147.5,147.5,,72,Open,SBD,F,Raw
1,Joyce Gail Reboton,1990,Philippines,73.9,145,-155,157.5,157.5,67.5,72.5,-77.5,72.5,165,172.5,173,173,403,84,Open,SBD,F,Raw
2,Somayeh Zangane,1990,Iran,83.15,110,-130,-130,110,57.5,72.5,85,85,120,135,140,140,335,84,Open,SBD,F,Raw
3,Florence Ho,1979,Hong Kong,82.55,115,117.5,,117.5,67.5,72.5,-77.5,72.5,120,127.5,135,135,325,84,Open,SBD,F,Raw
4,Raj Kumari Yadav,1981,India,78.6,90,-110,-117.5,90,57.5,-62.5,62.5,62.5,117.5,125,-135,125,277.5,84,Open,SBD,F,Raw
1,Xeniya Okatenko,1994,Kazakhstan,103.65,150,160,170,170,110,,,110,160,172.5,,172.5,452.5,84+,Open,SBD,F,Raw
2,Kaur Rajpreet,1994,India,91.05,145,-152.5,-152.5,145,55,62.5,70,70,150,170,-182.5,170,385,84+,Open,SBD,F,Raw
3,Fahimeh Rezakhani,1990,Iran,86.3,70,-80,85,85,35,42.5,55,55,70,85,115,115,255,84+,Open,SBD,F,Raw
1,Veronica Ompod,2000,Philippines,42.65,87.5,95,-100,95,-50,50,-52.5,50,110,116,120,120,265,43,Sub-Juniors,SBD,F,Raw
2,Mae Tabuan Jessa,2002,Philippines,42.2,75,-85,85,85,47.5,50,-52.5,50,105,-112.5,-112.5,105,240,43,Sub-Juniors,SBD,F,Raw
3,S Amritya M,1999,India,42.4,55,60,65,65,25,30,,30,90,105,-117,105,200,43,Sub-Juniors,SBD,F,Raw
1,Kristina Popova,2001,Kazakhstan,46.25,80,90,93,93,55,60,-63,60,90,100,-110,100,253,47,Sub-Juniors,SBD,F,Raw
2,Anastassiya Poigray,1999,Kazakhstan,46.85,50,60,70,70,40,42.5,-45,42.5,60,70,80,80,192.5,47,Sub-Juniors,SBD,F,Raw
1,Qi Thor Qian,1999,Singapore,51.7,110,115,-120,115,52.5,-57.5,57.5,57.5,110,115,-133,115,287.5,52,Sub-Juniors,SBD,F,Raw
2,Bhagyalekshmi Bhagyalekshmi,2000,India,50.7,75,-82.5,97.5,97.5,45,50,52.5,52.5,102.5,117.5,125,125,275,52,Sub-Juniors,SBD,F,Raw
3,Almas Sadiya,1999,India,51.8,80,90,97.5,97.5,30,-37.5,37.5,37.5,92.5,105,107.5,107.5,242.5,52,Sub-Juniors,SBD,F,Raw
4,Rowella Abrea Andrea,1999,Philippines,50.75,75,85,-90,85,47.5,50,-52.5,50,-100,100,-105,100,235,52,Sub-Juniors,SBD,F,Raw
1,Carlo Venizeia A,2000,India,57,-90,-90,90,90,-52.5,52.5,-57.5,52.5,105,117.5,122.5,122.5,265,57,Sub-Juniors,SBD,F,Raw
2,Daisy Grace Lipasana,1999,Philippines,53.7,85,92.5,100,100,52.5,-57.5,-57.5,52.5,95,-105,105,105,257.5,57,Sub-Juniors,SBD,F,Raw
3,M Pragathishwari,2000,India,56.3,82.5,87.5,92.5,92.5,42.5,50,-52.5,50,92.5,100,105,105,247.5,57,Sub-Juniors,SBD,F,Raw
4,Sharma Anju,1999,India,56.4,65,75,87.5,87.5,40,45,50,50,75,92.5,-100,92.5,230,57,Sub-Juniors,SBD,F,Raw
1,Anastasiya Zhurbina,1999,Kazakhstan,62.35,117.5,125,130,130,80,87.5,92.5,92.5,132.5,140,145,145,367.5,63,Sub-Juniors,SBD,F,Raw
2,Ritu Ritu,2000,India,61.5,-115,115,-120,115,40,45,-50,45,130,-137.5,137.5,137.5,297.5,63,Sub-Juniors,SBD,F,Raw
3,C Aswathi,1999,India,62.65,87.5,-102.5,-102.5,87.5,47.5,50,-52.5,50,120,127.5,132.5,132.5,270,63,Sub-Juniors,SBD,F,Raw
4,M Mansi,2000,India,60.25,70,80,-85,80,-40,40,42.5,42.5,110,120,-127.5,120,242.5,63,Sub-Juniors,SBD,F,Raw
5,Tyagi Aastha,2000,India,62.3,75,82.5,-87.5,82.5,35,40,42.5,42.5,-105,105,-115,105,230,63,Sub-Juniors,SBD,F,Raw
1,A Ajeesha,2000,India,71.1,102.5,112.5,-117.5,112.5,47.5,52.5,55,55,117.5,127.5,132.5,132.5,300,72,Sub-Juniors,SBD,F,Raw
2,Rebello Caroline,2000,India,65.7,95,102.5,105,105,40,47.5,50,50,110,125,135,135,290,72,Sub-Juniors,SBD,F,Raw
3,Chauhan Aparna,1999,India,66.65,-90,90,95,95,30,40,42.5,42.5,110,117.5,-128,117.5,255,72,Sub-Juniors,SBD,F,Raw
1,Anna Pshenichnova,2001,Kazakhstan,82.8,100,-110,110,110,55,60,-65,60,130,140,142.5,142.5,312.5,84,Sub-Juniors,SBD,F,Raw
2,Prasad Navya,2001,India,72.25,87.5,97.5,102.5,102.5,47.5,55,-60,55,122.5,127.5,-130,127.5,285,84,Sub-Juniors,SBD,F,Raw
1,D. Bhavika,2000,India,89.9,80,90,100,100,40,42.5,50,50,90,110,-130,110,260,84+,Sub-Juniors,SBD,F,Raw
2,Jiya Sharma,2003,India,105.55,50,-52.5,52.5,52.5,35,-40,40,40,60,65,-82.5,65,157.5,84+,Sub-Juniors,SBD,F,Raw
1,Rajani S,1996,India,46.15,85,95,-102.5,95,47.5,52.5,55,55,110,120,127.5,127.5,277.5,47,Juniors,SBD,F,Raw
1,P Sreekutty S,1997,India,56.45,75,82.5,90,90,45,50,52.5,52.5,102.5,122.5,127.5,127.5,270,57,Juniors,SBD,F,Raw
1,Abigail Looi,1996,Singapore,62.95,130,140,145,145,67.5,72.5,75,75,150,163,170.5,170.5,390.5,63,Juniors,SBD,F,Raw
2,Ningthujam Lakshmi,1996,India,62.1,60,62.5,-85,62.5,30,-37.5,,30,87.5,100,110,110,202.5,63,Juniors,SBD,F,Raw
1,Alina Choo,1996,Singapore,68.05,122.5,130,135,135,75,80,-83,80,135,142.5,150,150,365,72,Juniors,SBD,F,Raw
1,Hana Shuck,1996,Singapore,80.15,160,170,-177.5,170,80,85.5,-88,85.5,160,170,-173,170,425.5,84,Juniors,SBD,F,Raw
2,Danielle Maxine Fugen,1995,Philippines,72.15,90,95,100,100,50,55,57.5,57.5,115,125,135,135,292.5,84,Juniors,SBD,F,Raw
3,Vandana Vandana,1998,India,81.6,60,80,-100,80,30,-42.5,42.5,42.5,80,95,105,105,227.5,84,Juniors,SBD,F,Raw
1,Nicole Go Alexis,1996,Philippines,84.3,90,100,107.5,107.5,55,60,65,65,115,122.5,135,135,307.5,84+,Juniors,SBD,F,Raw
1,Rebecca Yip Kit-Ying,1976,Hong Kong,50.15,62.5,70,-75,70,45,50,52.5,52.5,85,95,100,100,222.5,52,Masters 1,SBD,F,Raw
2,Singhal Parul,1974,India,51.4,60,65,-67.5,65,35,-40,-40,35,100,-120,-120,100,200,52,Masters 1,SBD,F,Raw
1,Wing-Yuk Ip,1961,Hong Kong,61.45,-62.5,62.5,,62.5,52.5,57.5,-62.5,57.5,85,95,105,105,225,63,Masters 2,SBD,F,Raw
1,Muji Setiono,1993,Indonesia,57.25,175,-185,-185,175,110,115,117.5,117.5,200,215,220,220,512.5,59,Open,SBD,M,Raw
2,Long Gee Ci,1988,Malaysia,58,135,142.5,-147.5,142.5,97.5,105,110,110,205,215,-222.5,215,467.5,59,Open,SBD,M,Raw
3,Aarif Mohammed,1991,India,58.4,140,155,160,160,102.5,-115,-115,102.5,175,185,-200,185,447.5,59,Open,SBD,M,Raw
4,Namdev Pratik,1993,India,58,135,145,147.5,147.5,85,-92.5,92.5,92.5,160,170,-180,170,410,59,Open,SBD,M,Raw
1,Alexandr Kuramshin,1986,Kazakhstan,65.9,215,225,230.5,230.5,135,142.5,147.5,147.5,230,250,-257.5,250,628,66,Open,SBD,M,Raw
2,Amir Asadollah Zadeh Rezaabadi,1990,Iran,65.9,195,205,-212.5,205,125,-135,-135,125,235,245,262.5,262.5,592.5,66,Open,SBD,M,Raw
3,Azat Salmen,1989,Kazakhstan,65.7,200,210,215,215,140,147.5,152.5,152.5,205,215,222.5,222.5,590,66,Open,SBD,M,Raw
4,P. Manjappa,1988,India,65.6,180,195,205,205,110,-115,-115,110,220,227.5,-230,227.5,542.5,66,Open,SBD,M,Raw
5,Patra Pradeep Kumar,1990,India,65.5,185,195,200,200,107.5,117.5,-120,117.5,210,-227.5,,210,527.5,66,Open,SBD,M,Raw
1,Andrey Prokopenko,1988,Kazakhstan,73.9,235,245,252.5,252.5,165,172.5,175,175,285,297.5,-311,297.5,725,74,Open,SBD,M,Raw
2,Tamta Bal Bir Kumar,1988,India,74,190,-200,-200,190,127.5,132.5,-137.5,132.5,250,260,-272.5,260,582.5,74,Open,SBD,M,Raw
3,Pin Yeoh Han,1989,Malaysia,72.2,190,197.5,-202.5,197.5,130,132.5,-137.5,132.5,200,217.5,-222.5,217.5,547.5,74,Open,SBD,M,Raw
4,Singh Davinder,1996,India,73.5,165,180,-190,180,115,122.5,-130,122.5,210,-230,-230,210,512.5,74,Open,SBD,M,Raw
5,Ram Sai,1993,India,73.1,180,-187.5,-187.5,180,95,100,102.5,102.5,210,-230,-230,210,492.5,74,Open,SBD,M,Raw
1,Aman Kapyshev,1987,Kazakhstan,82.65,260,-265,-265,260,160,170,172.5,172.5,240,250,255,255,687.5,83,Open,SBD,M,Raw
2,Vishwanatha B,1991,India,82.5,230,-242.5,-242.5,230,120,127.5,130,130,285,300,-326,300,660,83,Open,SBD,M,Raw
3,Abdukarim Tulegenov,1986,Kazakhstan,81.3,230,240,247.5,247.5,125,-132.5,132.5,132.5,252.5,262.5,275,275,655,83,Open,SBD,M,Raw
4,Pradeep Kumar,1988,India,82.6,-220,227.5,235,235,145,155,-157.5,155,242.5,252.5,265,265,655,83,Open,SBD,M,Raw
5,Abdalla Almaazmi,1992,UAE,82,140,142.5,160,160,120,,,120,252.5,265,275,275,555,83,Open,SBD,M,Raw
6,Syazwan Elias,1987,Malaysia,81,190,202.5,207.5,207.5,100,110,117.5,117.5,205,217.5,227.5,227.5,552.5,83,Open,SBD,M,Raw
7,Chaudhary Chandan,1986,India,81.7,190,-210,-210,190,110,125,140,140,180,205,217.5,217.5,547.5,83,Open,SBD,M,Raw
8,Faisal Alzaabi,1978,UAE,82.45,160,,,160,175,180,-193.5,180,120,140,,140,480,83,Open,SBD,M,Raw
9,Ahmad Haider,1979,UAE,80.8,100,,,100,162.5,-170,-170,162.5,160,180,,180,442.5,83,Open,SBD,M,Raw
DQ,Mohsen Shehni Feyz,1979,Iran,83,-220,-225,-225,,140,147.5,-152.5,147.5,-240,-240,-240,,,83,Open,SBD,M,Raw
1,Aslan Korigov,1987,Kazakhstan,92.55,275,287.5,300,300,175,185,190,190,277.5,290,300,300,790,93,Open,SBD,M,Raw
2,Gaurav Ganesh Ghule,1994,India,91.45,230,237.5,-242.5,237.5,165,-170,170,170,275,-280,280,280,687.5,93,Open,SBD,M,Raw
3,Nazirul Muhammed,1990,Singapore,92.9,255,-265,,255,-180,180,-185,180,235,245,250,250,685,93,Open,SBD,M,Raw
4,Charbel Alhallak,1984,Lebanon,91.05,-200,200,,200,155,162.5,-165,162.5,250,255,-262.5,255,617.5,93,Open,SBD,M,Raw
5,Dhanushka Kodikara,1992,Sri Lanka,92.35,225,240,245,245,125,132.5,-137.5,132.5,225,240,-257.5,240,617.5,93,Open,SBD,M,Raw
6,Mishra Prateek,1993,India,92.2,200,210,-217.5,210,115,120,125,125,215,-225,225,225,560,93,Open,SBD,M,Raw
1,Alexandr Miroshnikov,1987,Kazakhstan,104.4,250,265,272.5,272.5,200,207.5,-213,207.5,290,300,310,310,790,105,Open,SBD,M,Raw
2,Mostafa Yazdani Kachouei,1988,Iran,101.9,260,270,277.5,277.5,155,-160,-160,155,320,332.5,-357.5,332.5,765,105,Open,SBD,M,Raw
3,Vyacheslav Starkov,1987,Kazakhstan,99.1,255,262.5,-270,262.5,175,185,192.5,192.5,275,287.5,-310,287.5,742.5,105,Open,SBD,M,Raw
4,Mohammed Alhumaidi,1980,UAE,104.3,240,262.5,-277.5,262.5,177.5,182.5,-187.5,182.5,235,260,-292.5,260,705,105,Open,SBD,M,Raw
5,Indika Paranagama,1986,Sri Lanka,102.3,240,260,275,275,135,-145,150,150,255,270,-290,270,695,105,Open,SBD,M,Raw
6,Janardhan Sujay,1976,India,98.4,220,242.5,-255,242.5,100,102.5,-105,102.5,270,285,-300,285,630,105,Open,SBD,M,Raw
7,Chauhan Ankit,1992,India,104.4,230,247.5,-270,247.5,135,145,-150,145,210,225,-235,225,617.5,105,Open,SBD,M,Raw
1,D.K.R. Jayathilaka,1986,Sri Lanka,119.1,275,285,-292.5,285,125,135,-140,135,300,310,315.5,315.5,735.5,120,Open,SBD,M,Raw
2,Aurangazeb Khurram Hafiz,1974,India,116.6,272.5,-290,-290,272.5,150,152.5,160,160,250,265,,265,697.5,120,Open,SBD,M,Raw
3,Tripathi Mukesh,1995,India,111.3,220,230,240,240,130,140,-152.5,140,220,250,-270,250,630,120,Open,SBD,M,Raw
1,Jafar Piriniae,1983,Iran,148.5,290,-292.5,,290,195,202.5,-220,202.5,-260,270,282.5,282.5,775,120+,Open,SBD,M,Raw
2,Yevgeniy Yevdokimov,1980,Kazakhstan,129.15,270,280,290,290,-170,170,-175,170,260,270,280,280,740,120+,Open,SBD,M,Raw
3,Sonkar Bhim,1994,India,139.1,260,-280,-292.5,260,100,120,135,135,210,250,280,280,675,120+,Open,SBD,M,Raw
DQ,Mehdi Sadeghpour,1987,Iran,135.1,-260,-260,-260,,160,172.5,177.5,177.5,250,262.5,-272.5,262.5,,120+,Open,SBD,M,Raw
DQ,Mehdi Mafi Gholami,1982,Iran,141.4,-350,-350,,,,,,,,,,,,120+,Open,SBD,M,Raw
1,Mansurzhan Rassulov,2003,Kazakhstan,52.6,95,105,112.5,112.5,70,75,77.5,77.5,110,120,130,130,320,53,Sub-Juniors,SBD,M,Raw
2,Dias Shakerkhan,2003,Kazakhstan,50.1,85,95,-105,95,50,60,-70,60,110,120,-130,120,275,53,Sub-Juniors,SBD,M,Raw
DQ,Ray Puneet,2000,India,53,-80,-80,-80,,,,,,,,,,,53,Sub-Juniors,SBD,M,Raw
1,Jacob Arun,1999,India,58.6,140,142.5,160,160,70,80,87.5,87.5,140,160,172.5,172.5,420,59,Sub-Juniors,SBD,M,Raw
2,Soni Mihir,1999,India,58.15,130,140,145,145,70,77.5,80,80,170,182.5,-195,182.5,407.5,59,Sub-Juniors,SBD,M,Raw
3,Zafarzhan Mukhamedaliyev,2001,Kazakhstan,58.8,75,85,,85,50,55,60,60,85,110,135,135,280,59,Sub-Juniors,SBD,M,Raw
1,Matthew Yap,2000,Singapore,66,190,208.5,215.5,215.5,122.5,130,135,135,217.5,230.5,237.5,237.5,588,66,Sub-Juniors,SBD,M,Raw
2,Dmitriy Chebanov,1999,Kazakhstan,64.3,190,-200,200,200,135,145.5,148.5,148.5,220,233,-239.5,233,581.5,66,Sub-Juniors,SBD,M,Raw
3,Nikolay Yefimenko,2000,Kazakhstan,65.4,160,170,180,180,105,110,115,115,180,200,210,210,505,66,Sub-Juniors,SBD,M,Raw
4,Saydakhmat Yuldashev,2001,Kazakhstan,65.3,120,135,142.5,142.5,90,105,-110,105,140,-160,-180,140,387.5,66,Sub-Juniors,SBD,M,Raw
DQ,Ali Almaazmi,2001,UAE,65.8,80,,,80,80,95,-107.5,95,-170,-170,-182.5,,,66,Sub-Juniors,SBD,M,Raw
1,Mahzyar Ansari,1999,Iran,73.9,185,195,-202.5,195,105,110,112.5,112.5,190,202.5,-205,202.5,510,74,Sub-Juniors,SBD,M,Raw
2,Matthias Yap,2000,Singapore,72.6,170,177.5,182.5,182.5,90,97.5,100,100,190,202.5,-215,202.5,485,74,Sub-Juniors,SBD,M,Raw
3,Singh Soram Sunil,2002,India,73.2,150,170,-180,170,90,-100,-100,90,190,202.5,212.5,212.5,472.5,74,Sub-Juniors,SBD,M,Raw
4,Baliyn Hinashu,2000,India,74,140,150,160,160,100,110,-112.5,110,165,177.5,-187.5,177.5,447.5,74,Sub-Juniors,SBD,M,Raw
5,Sarath Sarath,1999,India,72.9,130,142.5,-147.5,142.5,75,-85,-85,75,170,180,195,195,412.5,74,Sub-Juniors,SBD,M,Raw
1,Wei Koh Kai,2000,Singapore,82.85,207.5,217.5,-225.5,217.5,125,132.5,135,135,210,220,-230,220,572.5,83,Sub-Juniors,SBD,M,Raw
2,Askar Katayev,1999,Kazakhstan,75.9,150,165,175,175,100,-110,110,110,160,180,200,200,485,83,Sub-Juniors,SBD,M,Raw
1,Feng Koo Wei,2000,Singapore,90.45,197.5,207.5,215.5,215.5,107.5,115,120.5,120.5,210,220,228,228,564,93,Sub-Juniors,SBD,M,Raw
2,Kam-Yeung Lam,1999,Hong Kong,87.9,160,180,,180,95,102.5,105,105,200,220,-235,220,505,93,Sub-Juniors,SBD,M,Raw
3,Aziz Amanov,2000,Kazakhstan,91.35,120,140,155,155,80,92.5,-105,92.5,150,170,,170,417.5,93,Sub-Juniors,SBD,M,Raw
1,Erfan Jahangiri Bavarsa,1999,Iran,105,135,145,170,170,110,120,132.5,132.5,180,190,210,210,512.5,105,Sub-Juniors,SBD,M,Raw
1,Hussain Murshid,1999,India,108.45,-182.5,182.5,192.5,192.5,77.5,90,97.5,97.5,-202.5,202.5,220,220,510,120,Sub-Juniors,SBD,M,Raw
2,Shindu Harpreet Singh,,India,117.95,120,140,160,160,60,80,-90,80,160,190,-205,190,430,120,Sub-Juniors,SBD,M,Raw
3,Omprakash Omprakash,1999,India,107.4,-70,70,110,110,80,100,-102.5,100,120,150,172.5,172.5,382.5,120,Sub-Juniors,SBD,M,Raw
1,Pal Paritesh,1999,India,130.2,170,190,210,210,110,130,140,140,170,200,205,205,555,120+,Sub-Juniors,SBD,M,Raw
2,Jacob Libin,1999,India,138.95,-130,130,140,140,55,65,70,70,130,145,180,180,390,120+,Sub-Juniors,SBD,M,Raw
3,Ojha Jay Shankar,2000,India,122.7,110,130,150,150,55,72.5,82.5,82.5,125,145,155,155,387.5,120+,Sub-Juniors,SBD,M,Raw
1,Marcus Yap,1998,Singapore,58.85,175,182.5,187.5,187.5,110,-115,-115,110,202.5,217.5,225,225,522.5,59,Juniors,SBD,M,Raw
2,Adriano Firizky,1996,Indonesia,58.65,175,185,-187.5,185,110,115,117.5,117.5,200,-210,-212.5,200,502.5,59,Juniors,SBD,M,Raw
3,Ka-Ho Mow,1994,Hong Kong,58.2,117.5,,,117.5,95,100,-110,100,140,160,-182.5,160,377.5,59,Juniors,SBD,M,Raw
1,Joel Chan,1996,Singapore,64.8,180,192.5,200,200,102.5,110,112.5,112.5,205,215,-225,215,527.5,66,Juniors,SBD,M,Raw
2,Mansour Almarzooqi,1996,UAE,66,-120,120,,120,125,-135,-135,125,120,-122.5,,120,365,66,Juniors,SBD,M,Raw
1,Jonathan Chua,1996,Singapore,72.8,212.5,225,-235,225,115,122.5,130,130,-240,252.5,265,265,620,74,Juniors,SBD,M,Raw
2,Tyler Man Ka Tsun,1995,Hong Kong,73.7,187.5,202.5,-210,202.5,-135,135,142.5,142.5,205,220,-227.5,220,565,74,Juniors,SBD,M,Raw
3,R Dheeraj Singh,1995,India,73.4,200,-207.5,-207.5,200,120,-125,-125,120,240,-250,-250,240,560,74,Juniors,SBD,M,Raw
1,Quan Tan Kang,1996,Singapore,81.7,200,215,222.5,222.5,150,160,-165,160,235,250,-255,250,632.5,83,Juniors,SBD,M,Raw
2,Rustam Saifutdinov,1998,Kazakhstan,81.3,230,237.5,242.5,242.5,130,137.5,142.5,142.5,210,220,-235,220,605,83,Juniors,SBD,M,Raw
3,Koichiro Hayashi,1995,Japan,81.8,180,200,-207.5,200,140,145,147.5,147.5,220,235,237.5,237.5,585,83,Juniors,SBD,M,Raw
4,Hesam Golbadi,1995,Iran,82.2,170,182.5,192.5,192.5,105,115,-122.5,115,210,222.5,-235,222.5,530,83,Juniors,SBD,M,Raw
1,Ruzmatkhan Kadyrov,1998,Kazakhstan,85.9,150,,,150,100,,,100,150,165,,165,415,93,Juniors,SBD,M,Raw
1,Said Shihabudheen,1995,India,112.3,232.5,252.5,-262.5,252.5,92.5,100,-107.5,100,252.5,270,300,300,652.5,120,Juniors,SBD,M,Raw
2,Yadav Pradeep Kr,1996,India,110.6,140,160,187.5,187.5,65,80,82.5,82.5,170,190,200,200,470,120,Juniors,SBD,M,Raw
1,Alexandr Zagrevskiy,1998,Kazakhstan,121.1,230,245,255.5,255.5,130,145,-155,145,230,245,-255.5,245,645.5,120+,Juniors,SBD,M,Raw
2,Roman Panin,1997,Kazakhstan,125.1,200,220,-225,220,110,120,-125,120,200,210,220,220,560,120+,Juniors,SBD,M,Raw
1,Eikichi Tomita,1971,Japan,57.7,120,-130,130,130,75,80,85,85,155,165,175,175,390,59,Masters 1,SBD,M,Raw
2,N Eshwara,1970,India,58.6,100,102.5,120,120,70,80,-82.5,80,135,150,-160,150,350,59,Masters 1,SBD,M,Raw
1,K Shivprasad,1973,India,65.4,110,112.5,130,130,70,80,85,85,140,160,170,170,385,66,Masters 1,SBD,M,Raw
1,Davranbek Turakhanov,1974,Kazakhstan,82.3,215,227.5,-240,227.5,137.5,145,150,150,230,250,270,270,647.5,83,Masters 1,SBD,M,Raw
2,Khairiddin Rizoev,1970,Tajikistan,80.1,180,195,-202.5,195,140,147.5,150,150,200,220,-240,220,565,83,Masters 1,SBD,M,Raw
1,Gholamreza Bagherzadeh,1973,Iran,93,200,220,240,240,150,160,-170,160,180,202.5,220,220,620,93,Masters 1,SBD,M,Raw
2,Ghosh Prabir,1974,India,91.7,180,200,-210,200,110,117.5,-120,117.5,200,232.5,245,245,562.5,93,Masters 1,SBD,M,Raw
1,Eranga Wijewickrama Athula,1968,Sri Lanka,102.1,240,260,265,265,125,132.5,137.5,137.5,220,235,-240,235,637.5,105,Masters 1,SBD,M,Raw
2,Kanchan Vijay,1968,India,104.9,200,-215,215,215,160,175,-185,175,200,212.5,222.5,222.5,612.5,105,Masters 1,SBD,M,Raw
3,G.H.J. Fernando,1975,Sri Lanka,94,205,220,232.5,232.5,120,-130,-130,120,210,-220,-220,210,562.5,105,Masters 1,SBD,M,Raw
1,Sharma Dharmendra,1976,India,118.6,130,160,185,185,100,115,122.5,122.5,200,230,-250,230,537.5,120,Masters 1,SBD,M,Raw
1,Hassan Koeik,1972,Lebanon,130.3,270,277.5,-280,277.5,180,190,-200,190,270,280,290,290,757.5,120+,Masters 1,SBD,M,Raw
2,Hamad Al Ajmi,1977,UAE,133.25,260,275,,275,175,180,190,190,235,-245,,235,700,120+,Masters 1,SBD,M,Raw
3,Shaifulizzam Mohammad Rouse,1976,Singapore,131.1,225,232.5,-235,232.5,130,137.5,142.5,142.5,247.5,260,280.5,280.5,655.5,120+,Masters 1,SBD,M,Raw
1,Motoaki Sugimoto,1966,Japan,65.2,115,125,135,135,65,80,90,90,140,165,180,180,405,66,Masters 2,SBD,M,Raw
1,V Ashok G,1960,India,72.9,140,-152.5,-152.5,140,75,82.5,90,90,170,185,-192.5,185,415,74,Masters 2,SBD,M,Raw
2,Pal Sat,1958,India,73.8,80,-95,105,105,90,95,,95,130,145,155,155,355,74,Masters 2,SBD,M,Raw
1,Vladimir Shkirman,1964,Kazakhstan,81.6,180,200,210,210,110,-115,,110,230,250,-268,250,570,83,Masters 2,SBD,M,Raw
2,Kumar Raj,1964,India,79.5,160,-180,-180,160,107.5,112.5,117.5,117.5,160,180,-195,180,457.5,83,Masters 2,SBD,M,Raw
3,Pandey Raj Kumar,1965,India,78.8,95,110,117.5,117.5,75,87.5,-92.5,87.5,135,145,-152.5,145,350,83,Masters 2,SBD,M,Raw
1,Diddee Lalit,1966,India,83.5,70,80,100,100,70,85,95,95,120,140,-170,140,335,93,Masters 2,SBD,M,Raw
1,Alireza Ghasemnezhad,1966,Iran,103.6,120,140,-150,140,120,-135,135,135,140,160,175,175,450,105,Masters 2,SBD,M,Raw
1,Sreenivasan Sreenivasan,1950,India,58.15,80,87.5,90,90,80,85,87.5,87.5,100,110,115,115,292.5,59,Masters 3,SBD,M,Raw
1,I Pauly N,1956,India,65.1,-115,115,-130,115,75,82.5,87.5,87.5,145,157.5,162.5,162.5,365,66,Masters 3,SBD,M,Raw
1,Chien-Lih Hwang,1953,Taiwan,73.7,100,115,-122.5,115,100,133.5,138,138,100,115,120,120,373,74,Masters 3,SBD,M,Raw
1,Rathore Jagdish,1950,India,78.4,100,120,132.5,132.5,65,-75,75,75,110,130,142.5,142.5,350,83,Masters 3,SBD,M,Raw
1,D Chandrababu,1957,India,83.4,105,115,130,130,77.5,-85,90,90,115,125,135,135,355,93,Masters 3,SBD,M,Raw
1,Mallya Manjunath,1956,India,96.6,140,150,157.5,157.5,90,100,-110,100,150,165,175,175,432.5,105,Masters 3,SBD,M,Raw
1,Mohan Datt Sharma,1945,India,54.5,-65,65,70,70,40,45,47.5,47.5,90,100,107.5,107.5,225,59,Masters 4,SBD,M,Raw
2,Kim-Won Pok,1940,Hong Kong,50.35,-60,60,,60,47.5,52.5,55,55,90,-102.5,102.5,102.5,217.5,59,Masters 4,SBD,M,Raw
1,Noshir Dara Pandole,1947,India,84.3,-90,-90,90,90,70,75,80,80,140,150,160,160,330,93,Masters 4,SBD,M,Raw
2,J Varghese P,1947,India,83.55,70,-85,,70,40,,,40,40,,,40,150,93,Masters 4,SBD,M,Raw
