Place,Name,Sex,BirthDate,Age,State,Equipment,Division,BodyweightKg,WeightClassKg,Squat1Kg,Squat2Kg,Squat3Kg,Best3SquatKg,Bench1Kg,Bench2Kg,Bench3Kg,Best3BenchKg,Deadlift1Kg,Deadlift2Kg,Deadlift3Kg,Best3DeadliftKg,TotalKg,Event,Team
1,Milena Thiele,F,2002-05-16,18,HE,Raw,Youth A,65.3,72,105,107.5,-110,107.5,67.5,70,-75,70,110,112.5,,112.5,290,SBD,TSV 1892 Heiligenrode e.V.
NS,Christine Groß,F,1979-06-02,41,HE,Raw,Masters 1,,,,,,,,,,,,,,,,SBD,PSV Blau Gelb Fulda e. V
1,Claudia Reinbold,F,1973-05-23,47,HE,Raw,Masters 1,66.3,72,77.5,80,85,85,52.5,-57.5,-57.5,52.5,105,110,120,120,257.5,SBD,TSV 1892 Heiligenrode e.V.
1,Pia Kring,F,1957-09-05,62,HE,Raw,Masters 3,59.9,63,65,70,75,75,60,65,67.5,67.5,100,105,-110,105,247.5,SBD,AC Power Elite Haiger e.V.
1,Lisa Rupprecht,F,1994-08-28,25,HE,Raw,Open,50.1,52,75,85,-90,85,35,40,-42.5,40,105,115,120,120,245,SBD,AC Germania 1900 Aschaffenburg-Schweinheim
1,Steffi Von Rahden,F,1985-11-14,34,HE,Raw,Open,57,57,85,95,-100,95,45,47.5,50,50,100,110,120,120,265,SBD,Fitness-Club Rhein-Main e.V.
1,Linda Pepping,F,1991-02-22,29,HE,Raw,Open,60.7,63,120,125,130,130,57.5,60,-62.5,60,125,132.5,140,140,330,SBD,ASV 1900 Griesheim e.V.
2,Myriam Anton,F,1989-10-05,30,HE,Raw,Open,62.4,63,107.5,115,125,125,65,70,-75,70,120,135,-145,135,330,SBD,Kraftsportverein 1959 Langen e.V.
3,Desiree Millmann,F,1991-07-11,29,HE,Raw,Open,62,63,110,117.5,-122.5,117.5,62.5,67.5,70,70,117.5,127.5,-132.5,127.5,315,SBD,Power Gym Wiesbaden e.V.
4,Alice Rose Teschabai,F,1992-08-31,27,HE,Raw,Open,61.4,63,82.5,87.5,-90,87.5,52.5,55,-57.5,55,110,115,120,120,262.5,SBD,Schwerathletik Gießen e.V.
1,Sonja Stefanie Krüger,F,1999-12-04,20,HE,Raw,Open,70.2,72,165,180,-185,180,100,-105,-105,100,170,-180,180,180,460,SBD,Fitness-Club Rhein-Main e.V.
2,Olga Fink,F,1990-04-23,30,HE,Raw,Open,68.6,72,125,132.5,140,140,67.5,72.5,-75,72.5,155,-160,160,160,372.5,SBD,Schwerathletik Gießen e.V.
3,Leonie Kolle,F,1995-08-01,25,HE,Raw,Open,69.8,72,105,117.5,122.5,122.5,55,60,65,65,130,142.5,150,150,337.5,SBD,ASV 1900 Griesheim e.V.
4,Carlotta Creutzfeldt,F,1993-10-08,26,HE,Raw,Open,69.3,72,110,115,-120,115,62.5,65,-70,65,125,130,135,135,315,SBD,TSV 1892 Heiligenrode e.V.
1,Christiane Palmer,F,1986-10-05,33,HE,Raw,Open,76.5,84,110,120,-125,120,60,67.5,-72.5,67.5,140,150,160,160,347.5,SBD,TSV 1892 Heiligenrode e.V.
2,Verena Akouete,F,1993-11-12,26,HE,Raw,Open,72.7,84,115,122.5,130,130,65,67.5,-70,67.5,145,-155,-155,145,342.5,SBD,ASV 1900 Griesheim e.V.
3,Rhea Holzer,F,1993-07-28,27,HE,Raw,Open,75.4,84,95,100,105,105,60,62.5,-65,62.5,127.5,135,145,145,312.5,SBD,ASV 1900 Griesheim e.V.
1,Eva Butzen,F,1993-08-09,27,HE,Raw,Open,90.3,84+,155,165,170,170,90,95,100.5,100.5,170,185,193,193,463.5,SBD,Power Gym Wiesbaden e.V.
2,Mareike Haas,F,1996-09-16,23,HE,Raw,Open,89.3,84+,125,130,135,135,95,-100,-102.5,95,155,160,165,165,395,SBD,Schwerathletik Gießen e.V.
3,Stephanie Ils,F,1990-11-16,29,HE,Raw,Open,86.5,84+,130,137.5,142.5,142.5,65,-70,-70,65,150,157.5,162.5,162.5,370,SBD,Fitboxcamp Powerlifting e.V. Lohr am Main
4,Tasia-Jana Wagner,F,1986-03-04,34,HE,Raw,Open,113.7,84+,115,120,130,130,67.5,72.5,-77.5,72.5,145,155,162.5,162.5,365,SBD,AC Germania 1900 Aschaffenburg-Schweinheim
5,Julina Schutta,F,1993-09-05,26,HE,Raw,Open,92.4,84+,87.5,92.5,100,100,42.5,45,47.5,47.5,120,127.5,135,135,282.5,SBD,TSV 1892 Heiligenrode e.V.
1,Lara Hinz,F,2004-01-26,16,HE,Raw,Youth B,83.5,84,135,145,155,155,70,75,-80,75,155,170,-177.5,170,400,SBD,Power Gym Wiesbaden e.V.
1,Jasmin Rauth,F,1998-04-18,22,HE,Raw,Juniors,62.3,63,100,-105,105,105,42.5,45,-47.5,45,120,-125,-125,120,270,SBD,AC 1888 Marburg e.V.
DQ,Antonia Verena Fehn,F,1999-07-20,21,HE,Raw,Juniors,61.1,63,77.5,85,-90,85,40,-45,45,45,-125,-125,-125,,,SBD,Fitboxcamp Powerlifting e.V. Lohr am Main
1,Silvia Krüger,F,1978-08-29,41,HE,Single-ply,Open,100.1,84+,80,105,120,120,75,100,-110,100,65,80,95,95,315,SBD,Fitness-Club Rhein-Main e.V.
1,Anna Beckenbach,F,1997-02-06,23,HE,Single-ply,Juniors,72.9,84,180,192.5,200,200,115,120,125,125,160,175,185,185,510,SBD,AV Vorwärts 05 Groß-Zimmern
NS,Finn Leonard,M,2002-04-18,18,HE,Raw,Youth A,,,,,,,,,,,,,,,,SBD,Schwerathletik Gießen e.V.
1,Adnan Choudhry,M,2005-03-20,15,HE,Raw,Youth B,81.5,83,120,130,140,140,80,90,-97.5,90,150,160,170,170,400,SBD,AC 1888 Marburg e.V.
1,Leon Salomon,M,2003-11-21,16,HE,Raw,Youth A,86.9,93,175,187.5,-200,187.5,107.5,,,107.5,200,215,-220,215,510,SBD,TSV 1892 Heiligenrode e.V.
1,Thomas Konstanty,M,1973-07-22,47,HE,Raw,Masters 1,80.4,83,160,170,-180,170,100,110,,110,240,250,262.5,262.5,542.5,SBD,AC 1888 Marburg e.V.
1,Markus Olt,M,1978-07-17,42,HE,Raw,Masters 1,86.1,93,-170,170,-182.5,170,100,105,-107.5,105,180,-200,-200,180,455,SBD,AC 1888 Marburg e.V.
1,Udo Ahlvers,M,1972-04-22,48,HE,Raw,Masters 1,117.6,120,155,165,175,175,130,140,150,150,190,205,220,220,545,SBD,Power Gym Wiesbaden e.V.
1,Steffen Radeck,M,1975-02-01,45,HE,Raw,Masters 1,127,120+,250,255,,255,140,145,,145,250,260,270,270,670,SBD,AC 1888 Marburg e.V.
1,Dr Martin Holfeld,M,1963-11-26,56,HE,Raw,Masters 2,68.5,74,100,105,115,115,80,85,-90,85,110,120,127.5,127.5,327.5,SBD,TSV 1892 Heiligenrode e.V.
1,Jürgen Titz,M,1965-05-23,55,HE,Raw,Masters 2,119.6,120,200,215,-230,215,140,145,-150,145,200,210,,210,570,SBD,AC Power Elite Haiger e.V.
1,Udo Thielking,M,1961-05-30,59,HE,Raw,Masters 2,128.7,120+,175,190,205,205,145,152.5,160,160,215,230,240,240,605,SBD,AC Power Elite Haiger e.V.
1,Hans-Joachim Hook,M,1954-05-10,66,HE,Raw,Masters 3,86.1,93,152.5,162.5,172.5,172.5,120,125,130,130,205,220,,220,522.5,SBD,AC 1888 Marburg e.V.
1,Ronald Schmidt,M,1960-05-07,60,HE,Raw,Masters 3,100.1,105,-150,160,170,170,120,127.5,130,130,150,160,175,175,475,SBD,AC 1888 Marburg e.V.
DQ,Ludwig Werner,M,1938-03-18,82,HE,Raw,Masters 4,66.2,74,-90,,,,,,,,,,,,,SBD,AC Germania 1900 Aschaffenburg-Schweinheim
1,Andreas Stelter,M,1947-03-25,73,HE,Raw,Masters 4,94.8,105,100,-105,-105,100,80,85,,85,140,150,160,160,345,SBD,AC 1888 Marburg e.V.
NS,Amer Ajlouni,M,1981-10-10,38,HE,Raw,Open,,,,,,,,,,,,,,,,SBD,Fitness-Club Rhein-Main e.V.
NS,Artur Rischo,M,1992-10-05,27,HE,Raw,Open,,,,,,,,,,,,,,,,SBD,AC Germania 1900 Aschaffenburg-Schweinheim
NS,Daniel Bender,M,1987-08-08,33,HE,Raw,Open,,,,,,,,,,,,,,,,SBD,Power Gym Wiesbaden e.V.
NS,James Payog,M,1995-10-31,24,HE,Raw,Open,,,,,,,,,,,,,,,,SBD,TSV 1892 Heiligenrode e.V.
NS,Simon Wiese,M,1992-07-28,28,HE,Raw,Open,,,,,,,,,,,,,,,,SBD,AC 1888 Marburg e.V.
NS,Vincent Schmidtke,M,1996-01-10,24,HE,Raw,Open,,,,,,,,,,,,,,,,SBD,TSV 1892 Heiligenrode e.V.
1,Jan Philipp Dienethal,M,1993-09-16,26,HE,Raw,Open,72.6,74,132.5,142.5,150,150,115,120,125,125,185,-200,200,200,475,SBD,TSV 1892 Heiligenrode e.V.
1,Arthur Averdunk,M,1995-06-12,25,HE,Raw,Open,82.4,83,205,215,222.5,222.5,110,-117.5,125,125,235,252.5,262.5,262.5,610,SBD,Schwerathletik Gießen e.V.
2,Sven Lopata,M,1990-09-14,29,HE,Raw,Open,81,83,192.5,202.5,207.5,207.5,125,135,140,140,220,240,-252.5,240,587.5,SBD,ASV 1900 Griesheim e.V.
3,Tobias Pahlke,M,1995-01-30,25,HE,Raw,Open,81.1,83,200,212.5,-223,212.5,125,135,-142.5,135,210,230,-240,230,577.5,SBD,Schwerathletik Gießen e.V.
4,Lucas Lang,M,1995-06-13,25,HE,Raw,Open,82,83,165,175,180,180,130,140,145,145,220,235,242.5,242.5,567.5,SBD,Schwerathletik Gießen e.V.
5,Moritz Bamberger,M,1991-09-12,28,HE,Raw,Open,82.2,83,180,192.5,-200,192.5,105,112.5,-117.5,112.5,230,245,255,255,560,SBD,AC Germania 1900 Aschaffenburg-Schweinheim
6,Marius Thomas Bender,M,1992-09-06,27,HE,Raw,Open,81.6,83,175,-190,190,190,110,117.5,-122.5,117.5,205,215,-225,215,522.5,SBD,AC Germania 1900 Aschaffenburg-Schweinheim
7,Jannik Lühs,M,1991-12-03,28,HE,Raw,Open,82.4,83,170,182.5,-190,182.5,107.5,115,-120,115,200,215,225,225,522.5,SBD,Schwerathletik Gießen e.V.
8,Jörn Perlwitz,M,1985-09-25,34,HE,Raw,Open,80.4,83,157.5,165,170,170,97.5,102.5,-110,102.5,182.5,187.5,-190,187.5,460,SBD,TSV 1892 Heiligenrode e.V.
9,Alexander Spieß,M,1993-01-30,27,HE,Raw,Open,80.5,83,145,155,160,160,100,-107.5,-107.5,100,180,190,-200,190,450,SBD,AC Germania 1900 Aschaffenburg-Schweinheim
10,Daniel Christ,M,1993-02-02,27,HE,Raw,Open,78.7,83,160,162.5,170,170,82.5,-87.5,-90,82.5,180,-190,-190,180,432.5,SBD,Power Gym Wiesbaden e.V.
1,Maximilian Stock,M,1993-05-04,27,HE,Raw,Open,88.7,93,192.5,200,205,205,155,160,165,165,232.5,242.5,252.5,252.5,622.5,SBD,AC Power Elite Haiger e.V.
2,Omar Assaf,M,1992-10-01,27,HE,Raw,Open,91.2,93,180,197.5,207.5,207.5,142.5,150,-155,150,230,247.5,-260,247.5,605,SBD,Schwerathletik Gießen e.V.
3,Patrick Müller,M,1993-09-19,26,HE,Raw,Open,90.2,93,185,195,205,205,115,122.5,,122.5,260,-280,-280,260,587.5,SBD,Power Gym Wiesbaden e.V.
4,Fabian Urban,M,1989-06-27,31,HE,Raw,Open,89.2,93,185,195,200,200,130,140,-145,140,222.5,235,,235,575,SBD,ASV 1900 Griesheim e.V.
5,Dirk Lyzwa,M,1991-10-13,28,HE,Raw,Open,90.1,93,195,210,-222.5,210,137.5,145,152.5,152.5,210,-232.5,-232.5,210,572.5,SBD,AV Vorwärts 05 Groß-Zimmern
6,Tobias Becker,M,1995-07-08,25,HE,Raw,Open,87.3,93,180,190,197.5,197.5,150,160,-165,160,190,200,210,210,567.5,SBD,TSV 1892 Heiligenrode e.V.
7,Jannis Bartscher,M,1996-11-17,23,HE,Raw,Open,92.1,93,185,195,-200,195,115,122.5,125,125,230,242.5,-250,242.5,562.5,SBD,TSV 1892 Heiligenrode e.V.
8,Gustav Mockenhaupt,M,1992-09-07,27,HE,Raw,Open,89.5,93,165,175,180,180,130,137.5,-140,137.5,220,-242.5,-242.5,220,537.5,SBD,AV Vorwärts 05 Groß-Zimmern
9,Daniel Hoffmann,M,1990-08-05,30,HE,Raw,Open,87.6,93,175,180,182.5,182.5,100,110,-115,110,200,210,215,215,507.5,SBD,Kraftsportverein 1959 Langen e.V.
1,Kai Eckert,M,1995-12-30,24,HE,Raw,Open,100.9,105,245,257.5,-265,257.5,160,167.5,-172.5,167.5,270,280,-290,280,705,SBD,AC 1888 Marburg e.V.
2,Florian Zahn,M,1996-03-25,24,HE,Raw,Open,99.7,105,210,220,-227.5,220,145,150,-152.5,150,240,255,-262.5,255,625,SBD,AV Vorwärts 05 Groß-Zimmern
3,Daniel Wettlaufer,M,1995-08-18,24,HE,Raw,Open,101.9,105,197.5,207.5,215,215,115,125,135,135,215,230,240,240,590,SBD,TSV 1892 Heiligenrode e.V.
4,Marcel Isinger,M,1994-10-26,25,HE,Raw,Open,103.2,105,175,187.5,200,200,112.5,120,-125,120,210,227.5,240,240,560,SBD,ASV 1900 Griesheim e.V.
5,Kevin Klein,M,1995-11-05,24,HE,Raw,Open,97.7,105,180,190,200,200,115,120,-125,120,200,212.5,-225,212.5,532.5,SBD,PSV Blau Gelb Fulda e. V
6,Sebastian Wegener,M,1996-09-14,23,HE,Raw,Open,101.5,105,130,142.5,152.5,152.5,117.5,-127.5,-127.5,117.5,177.5,190,200,200,470,SBD,Schwerathletik Gießen e.V.
1,Marvin Krüger,M,1991-07-11,29,HE,Raw,Open,113.5,120,200,212.5,225,225,145,155,-160,155,225,240,-255,240,620,SBD,Schwerathletik Gießen e.V.
2,Julian Bäckmann,M,1992-03-09,28,HE,Raw,Open,105.3,120,200,210,220,220,120,125,-130,125,220,235,-250,235,580,SBD,AC Germania 1900 Aschaffenburg-Schweinheim
1,Philipp Gramlich,M,1987-10-06,32,HE,Raw,Open,123.1,120+,250,260,272.5,272.5,170,180,185,185,280,300,305,305,762.5,SBD,AV Vorwärts 05 Groß-Zimmern
1,Jaime Kepp,M,2004-11-28,15,HE,Raw,Youth B,110.5,120,180,195,202.5,202.5,120,130,135,135,-180,195,200,200,537.5,SBD,AC 1888 Marburg e.V.
NS,Denis Kolovrat,M,2000-06-10,20,HE,Raw,Juniors,,,,,,,,,,,,,,,,SBD,ASV 1900 Griesheim e.V.
NS,Marco Sintoni,M,1998-09-10,21,HE,Raw,Juniors,,,,,,,,,,,,,,,,SBD,Kraftsportverein 1959 Langen e.V.
NS,Yannick Breither,M,1997-08-11,23,HE,Raw,Juniors,,,,,,,,,,,,,,,,SBD,Kraftsportverein 1959 Langen e.V.
1,Jannis Münch,M,1997-12-09,22,HE,Raw,Juniors,73.5,74,180,193,200,200,100,107.5,115,115,195,210,222.5,222.5,537.5,SBD,Schwerathletik Gießen e.V.
1,Patrick Popp,M,1997-12-21,22,HE,Raw,Juniors,80.2,83,182.5,195,202.5,202.5,132.5,137.5,142.5,142.5,220,232.5,-240,232.5,577.5,SBD,AC 1888 Marburg e.V.
2,Raban Sidon,M,1998-01-14,22,HE,Raw,Juniors,82.2,83,177.5,187.5,195,195,115,122.5,127.5,127.5,215,-232.5,-232.5,215,537.5,SBD,Power Gym Wiesbaden e.V.
3,Frederik Föller,M,1998-08-12,22,HE,Raw,Juniors,81.4,83,160,170,175,175,100,110,115,115,220,230,-235,230,520,SBD,Kraftsportverein 1959 Langen e.V.
4,Jan Niklas Hinzmann,M,2001-02-10,19,HE,Raw,Juniors,79.5,83,150,160,167.5,167.5,105,110,115,115,175,190,205,205,487.5,SBD,AC 1888 Marburg e.V.
5,Joshua Beaufort,M,1998-05-20,22,HE,Raw,Juniors,80.6,83,150,160,170,170,100,-110,-110,100,180,200,212.5,212.5,482.5,SBD,ASV 1900 Griesheim e.V.
1,Robert Röder,M,1999-08-24,20,HE,Raw,Juniors,91,93,220,232.5,-237.5,232.5,130,135,-140,135,245,260,270,270,637.5,SBD,AC 1888 Marburg e.V.
1,Johannes Reuter,M,1998-08-31,21,HE,Raw,Juniors,104.5,105,232.5,247.5,260,260,130,137.5,145,145,255,272.5,-295,272.5,677.5,SBD,Schwerathletik Gießen e.V.
2,Benedikt Hoffarth,M,1998-09-19,21,HE,Raw,Juniors,99.3,105,180,200,-220,200,115,125,,125,220,,,220,545,SBD,AV Vorwärts 05 Groß-Zimmern
3,Nikolas Harmel,M,1999-07-25,21,HE,Raw,Juniors,96.2,105,180,190,205,205,105,115,-125,115,190,205,-225,205,525,SBD,AV Vorwärts 05 Groß-Zimmern
1,Hamdy Khalifa,M,1999-05-20,21,HE,Raw,Juniors,108.2,120,200,210,220,220,135,140,-150,140,-225,235,-250,235,595,SBD,Power Gym Wiesbaden e.V.
1,Fabio Tomic,M,2002-09-29,17,HE,Single-ply,Open,80.7,83,-245,250,-260,250,150,-155,155,155,185,207.5,-225,207.5,612.5,SBD,TSV 1892 Heiligenrode e.V.
1,Heiko Krüger,M,1971-03-09,49,HE,Single-ply,Open,83.1,93,125,225,,225,110,125,130,130,160,175,180,180,535,SBD,Fitness-Club Rhein-Main e.V.
